{
    "scan": {
        "analysis": {
            "0": {
                "algorithm": "OccPixelThresholdTune",
                "config": {
                    "occLowCut": [0.2],
                    "occHighCut": [0.8]
                }
            },
            "n_count": 1
        },
        "histogrammer": {
            "0": {
                "algorithm": "OccupancyMap",
                "config": {}
            },
            "1": {
                "algorithm": "TotMap",
                "config": {}
            },
            "2": {
                "algorithm": "Tot2Map",
                "config": {}
            },
            "3": {
                "algorithm": "TagDist",
                "config": {}
            },
            "4": {
                "algorithm": "HitsPerEvent",
                "config": {}
            },
            "5": {
                "algorithm": "DataArchiver",
                "config": {}
            },
            "n_count": 4
        },
        "loops": [
        { 
            "config": {
                "max": 15,
                "min": -15,
                "steps": [8,4,2,1,1,1,1],
                "pixelReg": 0,
                "rstPixelReg": true
            },
            "loopAction": "Rd53bPixelFeedback"
        },
        {
            "config": {
                "max": 768,
                "min": 0,
                "step": 1,
                "maskType": 3
            },
            "loopAction": "Rd53bMaskLoop"
        },
        {
            "config": {
                "max": 50,
                "min": 0,
                "step": 1,
                "nSteps": 2,
                "usePToT": true
            },
            "loopAction": "Rd53bCoreColLoop"
        },
            {
                "config": {
                    "count": 50,
                    "delay": 56,
                    "extTrigger": false,
                    "frequency": 5000,
                    "noInject": false,
                    "time": 0,
                    "edgeMode": false
                },
                "loopAction": "Rd53bTriggerLoop"
            },
            {
                "loopAction": "StdDataLoop"
            }
        ],
        "name": "TunePixelTreshold",
        "prescan": {
            "InjVcalRange": 1,
            "InjDigEn": 0,
            "Latency": 60,
            "TotEnPtot": 1,
            "TotEnPtoa": 1,
            "TotPtotLatency": 0
        }
    }
}
